FPGA_Streaming_System/sim/simulation_dump.vcd
$date
	Sat Jun 27 20:53:50 2026
$end
$version
	ModelSim Version 2020.1
$end
$timescale
	1ps
$end

$scope module TB_Streaming_System $end
$var parameter 32 ! FIFO_ADDR_WIDTH_TB $end
$var parameter 32 " BAUD_HALF_DIV_TB $end
$var parameter 32 # IDLE_TIMEOUT_TB $end
$var reg 1 $ iFastClk $end
$var reg 1 % iSlowClk $end
$var reg 1 & iResetN $end
$var reg 8 ' iDataIn [7:0] $end
$var reg 1 ( iValidIn $end
$var wire 1 ) oSerialTx $end
$var wire 1 * oBusyTx $end
$var integer 32 + idx $end
$var integer 32 , gated_clk_count $end
$var integer 32 - fifo_read_count $end

$scope task Send_Block $end
$var reg 8 . base_value [7:0] $end
$var integer 32 / sample_count $end
$upscope $end

$scope module dut $end
$var parameter 32 0 FIFO_ADDR_WIDTH $end
$var parameter 32 1 BAUD_HALF_DIV $end
$var parameter 32 2 IDLE_TIMEOUT $end
$var parameter 32 3 SIM_MODE $end
$var wire 1 4 iFastClk $end
$var wire 1 5 iSlowClk $end
$var wire 1 6 iResetN $end
$var wire 1 7 iDataIn [7] $end
$var wire 1 8 iDataIn [6] $end
$var wire 1 9 iDataIn [5] $end
$var wire 1 : iDataIn [4] $end
$var wire 1 ; iDataIn [3] $end
$var wire 1 < iDataIn [2] $end
$var wire 1 = iDataIn [1] $end
$var wire 1 > iDataIn [0] $end
$var wire 1 ? iValidIn $end
$var wire 1 ) oSerialTx $end
$var wire 1 * oBusyTx $end
$var wire 1 @ wClkEn $end
$var wire 1 A wGatedFastClk $end
$var wire 1 B wFirData [15] $end
$var wire 1 C wFirData [14] $end
$var wire 1 D wFirData [13] $end
$var wire 1 E wFirData [12] $end
$var wire 1 F wFirData [11] $end
$var wire 1 G wFirData [10] $end
$var wire 1 H wFirData [9] $end
$var wire 1 I wFirData [8] $end
$var wire 1 J wFirData [7] $end
$var wire 1 K wFirData [6] $end
$var wire 1 L wFirData [5] $end
$var wire 1 M wFirData [4] $end
$var wire 1 N wFirData [3] $end
$var wire 1 O wFirData [2] $end
$var wire 1 P wFirData [1] $end
$var wire 1 Q wFirData [0] $end
$var wire 1 R wFirValid $end
$var wire 1 S wFifoRData [15] $end
$var wire 1 T wFifoRData [14] $end
$var wire 1 U wFifoRData [13] $end
$var wire 1 V wFifoRData [12] $end
$var wire 1 W wFifoRData [11] $end
$var wire 1 X wFifoRData [10] $end
$var wire 1 Y wFifoRData [9] $end
$var wire 1 Z wFifoRData [8] $end
$var wire 1 [ wFifoRData [7] $end
$var wire 1 \ wFifoRData [6] $end
$var wire 1 ] wFifoRData [5] $end
$var wire 1 ^ wFifoRData [4] $end
$var wire 1 _ wFifoRData [3] $end
$var wire 1 ` wFifoRData [2] $end
$var wire 1 a wFifoRData [1] $end
$var wire 1 b wFifoRData [0] $end
$var wire 1 c wFifoFull $end
$var wire 1 d wFifoEmpty $end
$var wire 1 e wFifoRinc $end

$scope module u_Power_Controller $end
$var parameter 32 f IDLE_TIMEOUT $end
$var parameter 32 g SIM_MODE $end
$var parameter 32 h CNT_W $end
$var parameter 4 i IDLE_RELOAD $end
$var wire 1 4 iFastClk $end
$var wire 1 6 iResetN $end
$var wire 1 ? iInValid $end
$var reg 1 j oClkEn $end
$var wire 1 A oGatedFastClk $end
$var reg 4 k rIdleCnt [3:0] $end
$var reg 1 l rClkEnReq $end

$scope function clog2 $end
$var integer 32 m clog2 $end
$var integer 32 n value $end
$var integer 32 o temp $end
$upscope $end

$scope begin g_SIM_MODEL $end
$upscope $end
$upscope $end

$scope module u_FIR_Filter $end
$var wire 1 A iClkFast $end
$var wire 1 6 iRstN $end
$var wire 1 7 iDataIn [7] $end
$var wire 1 8 iDataIn [6] $end
$var wire 1 9 iDataIn [5] $end
$var wire 1 : iDataIn [4] $end
$var wire 1 ; iDataIn [3] $end
$var wire 1 < iDataIn [2] $end
$var wire 1 = iDataIn [1] $end
$var wire 1 > iDataIn [0] $end
$var wire 1 ? iValidIn $end
$var wire 1 B oDataOut [15] $end
$var wire 1 C oDataOut [14] $end
$var wire 1 D oDataOut [13] $end
$var wire 1 E oDataOut [12] $end
$var wire 1 F oDataOut [11] $end
$var wire 1 G oDataOut [10] $end
$var wire 1 H oDataOut [9] $end
$var wire 1 I oDataOut [8] $end
$var wire 1 J oDataOut [7] $end
$var wire 1 K oDataOut [6] $end
$var wire 1 L oDataOut [5] $end
$var wire 1 M oDataOut [4] $end
$var wire 1 N oDataOut [3] $end
$var wire 1 O oDataOut [2] $end
$var wire 1 P oDataOut [1] $end
$var wire 1 Q oDataOut [0] $end
$var wire 1 R oValidOut $end
$var reg 8 p rX0 [7:0] $end
$var reg 8 q rX1 [7:0] $end
$var reg 8 r rX2 [7:0] $end
$var reg 8 s rX3 [7:0] $end
$var wire 1 t wX0 [15] $end
$var wire 1 u wX0 [14] $end
$var wire 1 v wX0 [13] $end
$var wire 1 w wX0 [12] $end
$var wire 1 x wX0 [11] $end
$var wire 1 y wX0 [10] $end
$var wire 1 z wX0 [9] $end
$var wire 1 { wX0 [8] $end
$var wire 1 | wX0 [7] $end
$var wire 1 } wX0 [6] $end
$var wire 1 ~ wX0 [5] $end
$var wire 1 !! wX0 [4] $end
$var wire 1 "! wX0 [3] $end
$var wire 1 #! wX0 [2] $end
$var wire 1 $! wX0 [1] $end
$var wire 1 %! wX0 [0] $end
$var wire 1 &! wX1 [15] $end
$var wire 1 '! wX1 [14] $end
$var wire 1 (! wX1 [13] $end
$var wire 1 )! wX1 [12] $end
$var wire 1 *! wX1 [11] $end
$var wire 1 +! wX1 [10] $end
$var wire 1 ,! wX1 [9] $end
$var wire 1 -! wX1 [8] $end
$var wire 1 .! wX1 [7] $end
$var wire 1 /! wX1 [6] $end
$var wire 1 0! wX1 [5] $end
$var wire 1 1! wX1 [4] $end
$var wire 1 2! wX1 [3] $end
$var wire 1 3! wX1 [2] $end
$var wire 1 4! wX1 [1] $end
$var wire 1 5! wX1 [0] $end
$var wire 1 6! wX2 [15] $end
$var wire 1 7! wX2 [14] $end
$var wire 1 8! wX2 [13] $end
$var wire 1 9! wX2 [12] $end
$var wire 1 :! wX2 [11] $end
$var wire 1 ;! wX2 [10] $end
$var wire 1 <! wX2 [9] $end
$var wire 1 =! wX2 [8] $end
$var wire 1 >! wX2 [7] $end
$var wire 1 ?! wX2 [6] $end
$var wire 1 @! wX2 [5] $end
$var wire 1 A! wX2 [4] $end
$var wire 1 B! wX2 [3] $end
$var wire 1 C! wX2 [2] $end
$var wire 1 D! wX2 [1] $end
$var wire 1 E! wX2 [0] $end
$var wire 1 F! wX3 [15] $end
$var wire 1 G! wX3 [14] $end
$var wire 1 H! wX3 [13] $end
$var wire 1 I! wX3 [12] $end
$var wire 1 J! wX3 [11] $end
$var wire 1 K! wX3 [10] $end
$var wire 1 L! wX3 [9] $end
$var wire 1 M! wX3 [8] $end
$var wire 1 N! wX3 [7] $end
$var wire 1 O! wX3 [6] $end
$var wire 1 P! wX3 [5] $end
$var wire 1 Q! wX3 [4] $end
$var wire 1 R! wX3 [3] $end
$var wire 1 S! wX3 [2] $end
$var wire 1 T! wX3 [1] $end
$var wire 1 U! wX3 [0] $end
$var wire 1 V! wTerm0 [15] $end
$var wire 1 W! wTerm0 [14] $end
$var wire 1 X! wTerm0 [13] $end
$var wire 1 Y! wTerm0 [12] $end
$var wire 1 Z! wTerm0 [11] $end
$var wire 1 [! wTerm0 [10] $end
$var wire 1 \! wTerm0 [9] $end
$var wire 1 ]! wTerm0 [8] $end
$var wire 1 ^! wTerm0 [7] $end
$var wire 1 _! wTerm0 [6] $end
$var wire 1 `! wTerm0 [5] $end
$var wire 1 a! wTerm0 [4] $end
$var wire 1 b! wTerm0 [3] $end
$var wire 1 c! wTerm0 [2] $end
$var wire 1 d! wTerm0 [1] $end
$var wire 1 e! wTerm0 [0] $end
$var wire 1 f! wTerm1 [15] $end
$var wire 1 g! wTerm1 [14] $end
$var wire 1 h! wTerm1 [13] $end
$var wire 1 i! wTerm1 [12] $end
$var wire 1 j! wTerm1 [11] $end
$var wire 1 k! wTerm1 [10] $end
$var wire 1 l! wTerm1 [9] $end
$var wire 1 m! wTerm1 [8] $end
$var wire 1 n! wTerm1 [7] $end
$var wire 1 o! wTerm1 [6] $end
$var wire 1 p! wTerm1 [5] $end
$var wire 1 q! wTerm1 [4] $end
$var wire 1 r! wTerm1 [3] $end
$var wire 1 s! wTerm1 [2] $end
$var wire 1 t! wTerm1 [1] $end
$var wire 1 u! wTerm1 [0] $end
$var wire 1 v! wTerm2 [15] $end
$var wire 1 w! wTerm2 [14] $end
$var wire 1 x! wTerm2 [13] $end
$var wire 1 y! wTerm2 [12] $end
$var wire 1 z! wTerm2 [11] $end
$var wire 1 {! wTerm2 [10] $end
$var wire 1 |! wTerm2 [9] $end
$var wire 1 }! wTerm2 [8] $end
$var wire 1 ~! wTerm2 [7] $end
$var wire 1 !" wTerm2 [6] $end
$var wire 1 "" wTerm2 [5] $end
$var wire 1 #" wTerm2 [4] $end
$var wire 1 $" wTerm2 [3] $end
$var wire 1 %" wTerm2 [2] $end
$var wire 1 &" wTerm2 [1] $end
$var wire 1 '" wTerm2 [0] $end
$var wire 1 (" wTerm3 [15] $end
$var wire 1 )" wTerm3 [14] $end
$var wire 1 *" wTerm3 [13] $end
$var wire 1 +" wTerm3 [12] $end
$var wire 1 ," wTerm3 [11] $end
$var wire 1 -" wTerm3 [10] $end
$var wire 1 ." wTerm3 [9] $end
$var wire 1 /" wTerm3 [8] $end
$var wire 1 0" wTerm3 [7] $end
$var wire 1 1" wTerm3 [6] $end
$var wire 1 2" wTerm3 [5] $end
$var wire 1 3" wTerm3 [4] $end
$var wire 1 4" wTerm3 [3] $end
$var wire 1 5" wTerm3 [2] $end
$var wire 1 6" wTerm3 [1] $end
$var wire 1 7" wTerm3 [0] $end
$upscope $end

$scope module u_Async_FIFO $end
$var parameter 32 8" AddrWidth $end
$var parameter 32 9" DataWidth $end
$var parameter 32 :" Depth $end
$var wire 1 A iWClk $end
$var wire 1 6 iWRstN $end
$var wire 1 5 iRClk $end
$var wire 1 6 iRRstN $end
$var wire 1 B iData [15] $end
$var wire 1 C iData [14] $end
$var wire 1 D iData [13] $end
$var wire 1 E iData [12] $end
$var wire 1 F iData [11] $end
$var wire 1 G iData [10] $end
$var wire 1 H iData [9] $end
$var wire 1 I iData [8] $end
$var wire 1 J iData [7] $end
$var wire 1 K iData [6] $end
$var wire 1 L iData [5] $end
$var wire 1 M iData [4] $end
$var wire 1 N iData [3] $end
$var wire 1 O iData [2] $end
$var wire 1 P iData [1] $end
$var wire 1 Q iData [0] $end
$var wire 1 R iWInc $end
$var wire 1 e iRInc $end
$var wire 1 S oData [15] $end
$var wire 1 T oData [14] $end
$var wire 1 U oData [13] $end
$var wire 1 V oData [12] $end
$var wire 1 W oData [11] $end
$var wire 1 X oData [10] $end
$var wire 1 Y oData [9] $end
$var wire 1 Z oData [8] $end
$var wire 1 [ oData [7] $end
$var wire 1 \ oData [6] $end
$var wire 1 ] oData [5] $end
$var wire 1 ^ oData [4] $end
$var wire 1 _ oData [3] $end
$var wire 1 ` oData [2] $end
$var wire 1 a oData [1] $end
$var wire 1 b oData [0] $end
$var reg 1 ;" oFull $end
$var reg 1 <" oEmpty $end
$var reg 5 =" wPtrBin [4:0] $end
$var reg 5 >" rPtrBin [4:0] $end
$var reg 5 ?" wPtrGray [4:0] $end
$var reg 5 @" rPtrGray [4:0] $end
$var wire 1 A" wPtrGrayNext [4] $end
$var wire 1 B" wPtrGrayNext [3] $end
$var wire 1 C" wPtrGrayNext [2] $end
$var wire 1 D" wPtrGrayNext [1] $end
$var wire 1 E" wPtrGrayNext [0] $end
$var wire 1 F" rPtrGrayNext [4] $end
$var wire 1 G" rPtrGrayNext [3] $end
$var wire 1 H" rPtrGrayNext [2] $end
$var wire 1 I" rPtrGrayNext [1] $end
$var wire 1 J" rPtrGrayNext [0] $end
$var wire 1 K" wPtrBinNext [4] $end
$var wire 1 L" wPtrBinNext [3] $end
$var wire 1 M" wPtrBinNext [2] $end
$var wire 1 N" wPtrBinNext [1] $end
$var wire 1 O" wPtrBinNext [0] $end
$var wire 1 P" rPtrBinNext [4] $end
$var wire 1 Q" rPtrBinNext [3] $end
$var wire 1 R" rPtrBinNext [2] $end
$var wire 1 S" rPtrBinNext [1] $end
$var wire 1 T" rPtrBinNext [0] $end
$var reg 5 U" wQ1RPtr [4:0] $end
$var reg 5 V" wQ2RPtr [4:0] $end
$var reg 5 W" rQ1WPtr [4:0] $end
$var reg 5 X" rQ2WPtr [4:0] $end
$var wire 1 Y" rEmptyVal $end
$var wire 1 Z" wFullVal $end
$upscope $end

$scope module u_UART_Tx_16bit $end
$var parameter 32 [" BAUD_HALF_DIV $end
$var parameter 3 \" ST_IDLE $end
$var parameter 3 ]" ST_START $end
$var parameter 3 ^" ST_DATA $end
$var parameter 3 _" ST_STOP $end
$var wire 1 5 iSlowClk $end
$var wire 1 6 iResetN $end
$var wire 1 d iFifoEmpty $end
$var wire 1 S iFifoData [15] $end
$var wire 1 T iFifoData [14] $end
$var wire 1 U iFifoData [13] $end
$var wire 1 V iFifoData [12] $end
$var wire 1 W iFifoData [11] $end
$var wire 1 X iFifoData [10] $end
$var wire 1 Y iFifoData [9] $end
$var wire 1 Z iFifoData [8] $end
$var wire 1 [ iFifoData [7] $end
$var wire 1 \ iFifoData [6] $end
$var wire 1 ] iFifoData [5] $end
$var wire 1 ^ iFifoData [4] $end
$var wire 1 _ iFifoData [3] $end
$var wire 1 ` iFifoData [2] $end
$var wire 1 a iFifoData [1] $end
$var wire 1 b iFifoData [0] $end
$var reg 1 `" oFifoRinc $end
$var reg 1 a" oSerialTx $end
$var reg 1 b" oBusyTx $end
$var wire 1 c" wBaudClk $end
$var reg 1 d" rBaudClkD $end
$var wire 1 e" wBaudStep $end
$var reg 3 f" rState [2:0] $end
$var reg 16 g" rTxShift [15:0] $end
$var reg 5 h" rBitCnt [4:0] $end
$var reg 1 i" rStopStarted $end

$scope module u_Baud_Clk_Divider_50 $end
$var parameter 32 j" HALF_DIV $end
$var parameter 32 k" CNT_W $end
$var wire 1 5 iClk $end
$var wire 1 6 iResetN $end
$var reg 1 l" oClk $end
$var reg 4 m" rCnt [3:0] $end
$var wire 1 n" wCntDec [3] $end
$var wire 1 o" wCntDec [2] $end
$var wire 1 p" wCntDec [1] $end
$var wire 1 q" wCntDec [0] $end
$upscope $end
$upscope $end
$upscope $end
$upscope $end
$enddefinitions $end
#0
$dumpvars
0$
0%
0&
b0 '
0(
1j
b1010 k
1l
b0 p
b0 q
b0 r
b0 s
0;"
1<"
b0 ="
b0 >"
b0 ?"
b0 @"
b0 U"
b0 V"
b0 W"
b0 X"
0`"
1a"
0b"
0l"
b100 m"
0d"
b0 f"
b0 g"
b0 h"
0i"
bx .
b100 !
b101 "
b1010 #
b100 0
b101 1
b1010 2
b1 3
b1010 f
b1 g
b100 h
b1010 i
b100 8"
b10000 9"
b10000 :"
b101 ["
b0 \"
b1 ]"
b10 ^"
b100 _"
b101 j"
b11 k"
b100 m
b1011 n
b0 o
bx +
b0 ,
b0 -
bx /
1)
0*
1@
0A
0Q
0P
0O
0N
0M
0L
0K
0J
0I
0H
0G
0F
0E
0D
0C
0B
0R
xb
xa
x`
x_
x^
x]
x\
x[
xZ
xY
xX
xW
xV
xU
xT
xS
0c
1d
0e
0%!
0$!
0#!
0"!
0!!
0~
0}
0|
0{
0z
0y
0x
0w
0v
0u
0t
05!
04!
03!
02!
01!
00!
0/!
0.!
0-!
0,!
0+!
0*!
0)!
0(!
0'!
0&!
0E!
0D!
0C!
0B!
0A!
0@!
0?!
0>!
0=!
0<!
0;!
0:!
09!
08!
07!
06!
0U!
0T!
0S!
0R!
0Q!
0P!
0O!
0N!
0M!
0L!
0K!
0J!
0I!
0H!
0G!
0F!
0e!
0d!
0c!
0b!
0a!
0`!
0_!
0^!
0]!
0\!
0[!
0Z!
0Y!
0X!
0W!
0V!
0u!
0t!
0s!
0r!
0q!
0p!
0o!
0n!
0m!
0l!
0k!
0j!
0i!
0h!
0g!
0f!
0'"
0&"
0%"
0$"
0#"
0""
0!"
0~!
0}!
0|!
0{!
0z!
0y!
0x!
0w!
0v!
07"
06"
05"
04"
03"
02"
01"
00"
0/"
0."
0-"
0,"
0+"
0*"
0)"
0("
0E"
0D"
0C"
0B"
0A"
0J"
0I"
0H"
0G"
0F"
0O"
0N"
0M"
0L"
0K"
0T"
0S"
0R"
0Q"
0P"
1Y"
0Z"
0c"
1q"
1p"
0o"
0n"
0e"
0?
0>
0=
0<
0;
0:
09
08
07
06
05
04
$end
#5000
1$
14
1A
#10000
0$
04
0A
#15000
1$
14
1A
#20000
0$
04
0A
#25000
1$
14
1A
#30000
0$
04
0A
#35000
1$
14
1A
#40000
0$
04
0A
#45000
1$
14
1A
#50000
1%
0$
15
04
0A
#55000
1$
14
1A
#60000
0$
04
0A
#65000
1$
14
1A
#70000
0$
04
0A
#75000
1$
14
1A
1&
16
#80000
0$
04
0A
#85000
1$
14
1A
b1 ,
b1001 k
#90000
0$
04
0A
#95000
1$
14
1A
b10 ,
b1000 k
#100000
0%
0$
05
04
0A
#105000
1$
14
1A
b11 ,
b111 k
#110000
0$
04
0A
#115000
1$
14
1A
b100 ,
b110 k
#120000
0$
04
0A
#125000
1$
14
1A
b101 ,
b101 k
#130000
0$
04
0A
#135000
1$
14
1A
b110 ,
b100 k
#140000
0$
04
0A
#145000
1$
14
1A
b111 ,
b11 k
#150000
1%
0$
15
04
0A
b11 m"
0q"
#155000
1$
14
1A
b1000 ,
b10 k
#160000
0$
04
0A
#165000
1$
14
1A
b1001 ,
b1 k
#170000
0$
04
0A
#175000
1$
14
1A
b1010 ,
b0 k
0l
#180000
0$
04
0A
0j
0@
#185000
1$
14
#190000
0$
04
#195000
1$
14
#200000
0%
0$
05
04
#205000
1$
14
#210000
0$
04
#215000
1$
14
#220000
0$
04
#225000
1$
14
#230000
0$
04
#235000
1$
14
#240000
0$
04
#245000
1$
14
#250000
1%
0$
15
04
b10 m"
1q"
0p"
#255000
1$
14
#260000
0$
04
#265000
1$
14
#270000
0$
04
#275000
1$
14
b1 .
b10100 /
b0 +
#280000
0$
04
#285000
1$
14
b1 +
b1 '
1(
1>
1?
1R
1O"
1%!
1e!
1E"
1Q
#290000
0$
04
#295000
1$
14
b10 +
b1010 k
1l
b10 '
0>
1=
0%!
1$!
0e!
1d!
0Q
1P
#300000
0%
0$
05
04
1j
1@
#305000
1$
14
1A
b11 +
b10 p
b1 ="
b1 ?"
b1011 ,
b11 '
1>
0O"
1N"
0b
1a
0`
0_
0^
0]
0\
0[
0Z
0Y
0X
0W
0V
0U
0T
0S
14!
1s!
1D"
1%!
1e!
1O
1Q
#310000
0$
04
0A
#315000
1$
14
1A
b100 +
b11 p
b10 q
b10 ="
b11 ?"
b1100 ,
b100 '
0>
0=
1<
1O"
1D!
15!
1t!
1&"
1%"
0E"
0%!
0$!
1#!
0e!
0d!
1c!
1N
0Q
0P
0O
0N
1M
#320000
0$
04
0A
#325000
1$
14
1A
b101 +
b100 p
b11 q
b10 r
b11 ="
b10 ?"
b1101 ,
b101 '
1>
0O"
0N"
1M"
1T!
1E!
05!
04!
13!
0t!
0s!
1r!
1'"
0&"
0%"
1$"
14"
1C"
1%!
1e!
1Q
1O
1N
0Q
1P
#330000
0$
04
0A
#335000
1$
14
1A
b110 +
b101 p
b100 q
b11 r
b10 s
b100 ="
b110 ?"
b1110 ,
b110 '
0>
1=
1O"
1U!
0E!
0D!
1C!
15!
1t!
0'"
1%"
15"
1E"
0%!
1$!
0e!
1d!
1Q
0N
0M
1L
0Q
0P
0O
1N
#340000
0$
04
0A
#345000
1$
14
1A
b111 +
b110 p
b101 q
b100 r
b11 s
b101 ="
b111 ?"
b1111 ,
b111 '
1>
0O"
1N"
0U!
0T!
1S!
1E!
05!
14!
0t!
1s!
1'"
1&"
05"
04"
13"
0D"
1%!
1e!
1Q
0N
1M
0Q
1P
#350000
1%
0$
15
04
0A
b111 W"
b1 m"
0q"
#355000
1$
14
1A
b1000 +
b111 p
b110 q
b101 r
b100 s
b110 ="
b101 ?"
b10000 ,
b1000 '
0>
0=
0<
1;
1O"
1U!
0E!
1D!
15!
1t!
0'"
0%"
0$"
1#"
15"
0E"
0%!
0$!
0#!
1"!
0e!
0d!
0c!
1b!
1Q
1N
0Q
0P
1O
#360000
0$
04
0A
#365000
1$
14
1A
b1001 +
b1000 p
b111 q
b110 r
b101 s
b111 ="
b100 ?"
b10001 ,
b1001 '
1>
0O"
0N"
0M"
1L"
0U!
1T!
1E!
05!
04!
03!
12!
0t!
0s!
0r!
1q!
1'"
0&"
1%"
05"
14"
1B"
1%!
1e!
1Q
0N
0M
0L
1K
0Q
1P
#370000
0$
04
0A
#375000
1$
14
1A
b1010 +
b1001 p
b1000 q
b111 r
b110 s
b1000 ="
b1100 ?"
b10010 ,
b1010 '
0>
1=
1O"
1U!
0E!
0D!
0C!
1B!
15!
1t!
0'"
0%"
1$"
15"
1E"
0%!
1$!
0e!
1d!
1Q
1N
0Q
0P
0O
0N
1M
#380000
0$
04
0A
#385000
1$
14
1A
b1011 +
b1010 p
b1001 q
b1000 r
b111 s
b1001 ="
b1101 ?"
b10011 ,
b1011 '
1>
0O"
1N"
0U!
0T!
0S!
1R!
1E!
05!
14!
0t!
1s!
1'"
1&"
05"
04"
03"
12"
1D"
1%!
1e!
1Q
1N
0Q
1P
#390000
0$
04
0A
#395000
1$
14
1A
b1100 +
b1011 p
b1010 q
b1001 r
b1000 s
b1010 ="
b1111 ?"
b10100 ,
b1100 '
0>
0=
1<
1O"
1U!
0E!
1D!
15!
1t!
0'"
1%"
15"
0E"
0%!
0$!
1#!
0e!
0d!
1c!
1Q
0N
0M
1L
0Q
0P
1O
#400000
0%
0$
05
04
0A
#405000
1$
14
1A
b1101 +
b1100 p
b1011 q
b1010 r
b1001 s
b1011 ="
b1110 ?"
b10101 ,
b1101 '
1>
0O"
0N"
1M"
0U!
1T!
1E!
05!
04!
13!
0t!
0s!
1r!
1'"
0&"
0%"
0$"
0#"
1""
05"
14"
0C"
1%!
1e!
1Q
1N
0Q
1P
#410000
0$
04
0A
#415000
1$
14
1A
b1110 +
b1101 p
b1100 q
b1011 r
b1010 s
b1100 ="
b1010 ?"
b10110 ,
b1110 '
0>
1=
1O"
1U!
0E!
0D!
1C!
15!
1t!
0'"
1%"
15"
1E"
0%!
1$!
0e!
1d!
1Q
0N
1M
0Q
0P
0O
1N
#420000
0$
04
0A
#425000
1$
14
1A
b1111 +
b1110 p
b1101 q
b1100 r
b1011 s
b1101 ="
b1011 ?"
b10111 ,
b1111 '
1>
0O"
1N"
0U!
0T!
1S!
1E!
05!
14!
0t!
1s!
1'"
1&"
05"
04"
13"
0D"
1%!
1e!
1Q
0N
0M
0L
0K
1J
0Q
1P
#430000
0$
04
0A
#435000
1$
14
1A
b10000 +
b1111 p
b1110 q
b1101 r
b1100 s
b1110 ="
b1001 ?"
b11000 ,
b10000 '
0>
0=
0<
0;
1:
1O"
1U!
0E!
1D!
15!
1t!
0'"
0%"
1$"
15"
0E"
0%!
0$!
0#!
0"!
1!!
0e!
0d!
0c!
0b!
1a!
1Q
1N
0Q
0P
1O
#440000
0$
04
0A
#445000
1$
14
1A
b10001 +
b10000 p
b1111 q
b1110 r
b1101 s
b1111 ="
b1000 ?"
b11001 ,
b10001 '
1>
0O"
0N"
0M"
0L"
1K"
0U!
1T!
1E!
05!
04!
03!
02!
11!
0t!
0s!
0r!
0q!
1p!
1'"
0&"
1%"
05"
14"
1A"
1%!
1Z"
1e!
1Q
0N
1M
0Q
1P
#450000
1%
0$
15
04
0A
b1000 W"
b111 X"
b0 m"
0Y"
1q"
1p"
1o"
1n"
#455000
1$
14
1A
b10010 +
b10001 p
b10000 q
b1111 r
b1110 s
b10000 ="
b11000 ?"
1;"
b11010 ,
b10010 '
1c
0>
1=
1U!
0E!
0D!
0C!
0B!
1A!
15!
1t!
0'"
0%"
0$"
1#"
15"
0%!
1$!
0e!
1d!
1Q
1N
0Q
0P
0O
0N
0M
1L
#460000
0$
04
0A
#465000
1$
14
1A
b10011 +
b10010 p
b10001 q
b10000 r
b1111 s
b11011 ,
b10011 '
1>
0U!
0T!
0S!
0R!
1Q!
1E!
05!
14!
0t!
1s!
1'"
1&"
05"
04"
03"
02"
11"
1%!
1e!
1Q
1N
0Q
1P
#470000
0$
04
0A
#475000
1$
14
1A
b10100 +
b10011 p
b10010 q
b10001 r
b10000 s
b11100 ,
b10100 '
0>
0=
1<
1U!
0E!
1D!
15!
1t!
0'"
1%"
15"
0%!
0$!
1#!
0e!
0d!
1c!
1Q
0N
1M
0Q
0P
1O
#480000
0$
04
0A
#485000
1$
14
1A
b10100 p
b10011 q
b10010 r
b10001 s
b11101 ,
b0 '
0(
0<
0:
0U!
1T!
1E!
05!
04!
13!
0?
0R
0t!
0s!
1r!
1'"
0&"
0%"
1$"
05"
14"
0#!
0!!
0c!
0a!
1Q
1N
0O
0M
#490000
0$
04
0A
#495000
1$
14
1A
b11110 ,
b1001 k
#500000
0%
0$
05
04
0A
#505000
1$
14
1A
b11111 ,
b1000 k
#510000
0$
04
0A
#515000
1$
14
1A
b100000 ,
b111 k
#520000
0$
04
0A
#525000
1$
14
1A
b100001 ,
b110 k
#530000
0$
04
0A
#535000
1$
14
1A
b100010 ,
b101 k
#540000
0$
04
0A
#545000
1$
14
1A
b100011 ,
b100 k
#550000
1%
0$
15
04
0A
b11000 W"
b1000 X"
0<"
b100 m"
1l"
0d
0o"
0n"
1c"
1e"
#555000
1$
14
1A
b100100 ,
b11 k
#560000
0$
04
0A
#565000
1$
14
1A
b100101 ,
b10 k
#570000
0$
04
0A
#575000
1$
14
1A
b100110 ,
b1 k
#580000
0$
04
0A
#585000
1$
14
1A
b100111 ,
b0 k
0l
#590000
0$
04
0A
0j
0@
#595000
1$
14
#600000
0%
0$
05
04
#605000
1$
14
#610000
0$
04
#615000
1$
14
#620000
0$
04
#625000
1$
14
#630000
0$
04
#635000
1$
14
#640000
0$
04
#645000
1$
14
#650000
1%
0$
15
04
b11000 X"
b11 m"
1d"
b10 g"
1`"
0a"
1b"
b1 f"
0e"
0q"
1e
0)
1*
1T"
1J"
#655000
1$
14
#660000
0$
04
#665000
1$
14
#670000
0$
04
#675000
1$
14
#680000
0$
04
#685000
1$
14
#690000
0$
04
#695000
1$
14
#700000
0%
0$
05
04
#705000
1$
14
#710000
0$
04
#715000
1$
14
#720000
0$
04
#725000
1$
14
#730000
0$
04
#735000
1$
14
#740000
0$
04
#745000
1$
14
#750000
1%
0$
15
04
b1 >"
b1 @"
b10 m"
0`"
b1 -
1q"
0p"
1b
1`
0T"
1S"
0e
1T"
0S"
1I"
0I"
#755000
1$
14
#760000
0$
04
#765000
1$
14
#770000
0$
04
#775000
1$
14
#780000
0$
04
#785000
1$
14
#790000
0$
04
#795000
1$
14
#800000
0%
0$
05
04
#805000
1$
14
#810000
0$
04
#815000
1$
14
#820000
0$
04
#825000
1$
14
#830000
0$
04
#835000
1$
14
#840000
0$
04
#845000
1$
14
#850000
1%
0$
15
04
b1 m"
0q"
#855000
1$
14
#860000
0$
04
#865000
1$
14
#870000
0$
04
#875000
1$
14
#880000
0$
04
#885000
1$
14
#890000
0$
04
#895000
1$
14
#900000
0%
0$
05
04
#905000
1$
14
#910000
0$
04
#915000
1$
14
#920000
0$
04
#925000
1$
14
#930000
0$
04
#935000
1$
14
#940000
0$
04
#945000
1$
14
#950000
1%
0$
15
04
b0 m"
1q"
1p"
1o"
1n"
#955000
1$
14
#960000
0$
04
#965000
1$
14
#970000
0$
04
#975000
1$
14
#980000
0$
04
#985000
1$
14
#990000
0$
04
#995000
1$
14
#1000000
0%
0$
05
04
#1005000
1$
14
#1010000
0$
04
#1015000
1$
14
#1020000
0$
04
#1025000
1$
14
#1030000
0$
04
#1035000
1$
14
#1040000
0$
04
#1045000
1$
14
#1050000
1%
0$
15
04
b100 m"
0l"
0o"
0n"
0c"
#1055000
1$
14
#1060000
0$
04
#1065000
1$
14
#1070000
0$
04
#1075000
1$
14
#1080000
0$
04
#1085000
1$
14
#1090000
0$
04
#1095000
1$
14
#1100000
0%
0$
05
04
#1105000
1$
14
#1110000
0$
04
#1115000
1$
14
#1120000
0$
04
#1125000
1$
14
#1130000
0$
04
#1135000
1$
14
#1140000
0$
04
#1145000
1$
14
#1150000
1%
0$
15
04
b11 m"
0d"
0q"
#1155000
1$
14
#1160000
0$
04
#1165000
1$
14
#1170000
0$
04
#1175000
1$
14
#1180000
0$
04
#1185000
1$
14
#1190000
0$
04
#1195000
1$
14
#1200000
0%
0$
05
04
#1205000
1$
14
#1210000
0$
04
#1215000
1$
14
#1220000
0$
04
#1225000
1$
14
#1230000
0$
04
#1235000
1$
14
#1240000
0$
04
#1245000
1$
14
#1250000
1%
0$
15
04
b10 m"
1q"
0p"
#1255000
1$
14
#1260000
0$
04
#1265000
1$
14
#1270000
0$
04
#1275000
1$
14
#1280000
0$
04
#1285000
1$
14
#1290000
0$
04
#1295000
1$
14
#1300000
0%
0$
05
04
#1305000
1$
14
#1310000
0$
04
#1315000
1$
14
#1320000
0$
04
#1325000
1$
14
#1330000
0$
04
#1335000
1$
14
#1340000
0$
04
#1345000
1$
14
#1350000
1%
0$
15
04
b1 m"
0q"
#1355000
1$
14
#1360000
0$
04
#1365000
1$
14
#1370000
0$
04
#1375000
1$
14
#1380000
0$
04
#1385000
1$
14
#1390000
0$
04
#1395000
1$
14
#1400000
0%
0$
05
04
#1405000
1$
14
#1410000
0$
04
