FPGA_Power_Controller/sim/TB_Power_Controller.vcd
$date
	Fri Jun 26 20:40:54 2026
$end
$version
	ModelSim Version 2020.1
$end
$timescale
	1ps
$end

$scope module TB_Power_Controller $end
$var parameter 32 ! IDLE_TIMEOUT_TB $end
$var reg 1 " iFastClk $end
$var reg 1 # iResetN $end
$var reg 1 $ iInValid $end
$var wire 1 % oClkEn $end
$var wire 1 & oGatedFastClk $end
$var integer 32 ' gated_edges_before $end
$var integer 32 ( gated_edges_after $end

$scope module dut $end
$var parameter 32 ) IDLE_TIMEOUT $end
$var parameter 32 * SIM_MODE $end
$var parameter 32 + CNT_W $end
$var parameter 4 , IDLE_RELOAD $end
$var wire 1 - iFastClk $end
$var wire 1 . iResetN $end
$var wire 1 / iInValid $end
$var reg 1 0 oClkEn $end
$var wire 1 & oGatedFastClk $end
$var reg 4 1 rIdleCnt [3:0] $end
$var reg 1 2 rClkEnReq $end

$scope function clog2 $end
$var integer 32 3 clog2 $end
$var integer 32 4 value $end
$var integer 32 5 temp $end
$upscope $end

$scope begin g_SIM_MODEL $end
$upscope $end
$upscope $end
$upscope $end
$enddefinitions $end
#0
$dumpvars
0"
0#
0$
10
b1010 1
12
b1010 !
b1010 )
b1 *
b100 +
b1010 ,
b100 3
b1011 4
b0 5
b0 '
b0 (
1%
0&
0/
0.
0-
$end
#5000
1"
1-
1&
#10000
0"
0-
0&
#15000
1"
1-
1&
#20000
0"
0-
0&
#25000
1"
1-
1&
#30000
0"
0-
0&
#35000
1"
1-
1&
#40000
0"
0-
0&
#45000
1"
1-
1&
1#
1.
#50000
0"
0-
0&
#55000
1"
1-
1&
b1 (
b1001 1
#60000
0"
0-
0&
#65000
1"
1-
1&
b10 (
b1000 1
#70000
0"
0-
0&
#75000
1"
1-
1&
b11 (
1$
1/
b111 1
#80000
0"
0-
0&
#85000
1"
1-
1&
b100 (
b1010 1
#90000
0"
0-
0&
#95000
1"
1-
1&
b101 (
#100000
0"
0-
0&
#105000
1"
1-
1&
b110 (
#110000
0"
0-
0&
#115000
1"
1-
1&
b111 (
0$
0/
#120000
0"
0-
0&
#125000
1"
1-
1&
b1000 (
b1001 1
#130000
0"
0-
0&
#135000
1"
1-
1&
b1001 (
b1000 1
#140000
0"
0-
0&
#145000
1"
1-
1&
b1010 (
b111 1
#150000
0"
0-
0&
#155000
1"
1-
1&
b1011 (
b110 1
#160000
0"
0-
0&
#165000
1"
1-
1&
b1100 (
b101 1
#170000
0"
0-
0&
#175000
1"
1-
1&
b1101 (
b100 1
#180000
0"
0-
0&
#185000
1"
1-
1&
b1110 (
b11 1
#190000
0"
0-
0&
#195000
1"
1-
1&
b1111 (
b10 1
#200000
0"
0-
0&
#205000
1"
1-
1&
b10000 (
b1 1
#210000
0"
0-
0&
#215000
1"
1-
1&
b10001 (
b0 1
02
#220000
0"
0-
0&
00
0%
#221000
b10001 '
#225000
1"
1-
#230000
0"
0-
#235000
1"
1-
#240000
0"
0-
#245000
1"
1-
#250000
0"
0-
#255000
1"
1-
#260000
0"
0-
#265000
1"
1-
#270000
0"
0-
#275000
1"
1-
#280000
0"
0-
#285000
1"
1-
1$
1/
#290000
0"
0-
#295000
1"
1-
b1010 1
12
#300000
0"
0-
10
1%
#305000
1"
1-
1&
b10010 (
#310000
0"
0-
0&
#315000
1"
1-
1&
b10011 (
0$
0/
#320000
0"
0-
0&
#325000
1"
1-
1&
b10100 (
b1001 1
#330000
0"
0-
0&
#335000
1"
1-
1&
b10101 (
b1000 1
#340000
0"
0-
0&
#345000
1"
1-
1&
b10110 (
b111 1
#350000
0"
0-
0&
#355000
1"
1-
1&
b10111 (
b110 1
#360000
0"
0-
0&
#365000
1"
1-
1&
b11000 (
b101 1
#370000
0"
0-
0&
#375000
1"
1-
1&
b11001 (
b100 1
#380000
0"
0-
0&
#385000
1"
1-
1&
b11010 (
b11 1
#390000
0"
0-
0&
#395000
1"
1-
1&
b11011 (
b10 1
#400000
0"
0-
0&
#405000
1"
1-
1&
b11100 (
b1 1
#410000
0"
0-
0&
#415000
1"
1-
1&
b11101 (
b0 1
02
#420000
0"
0-
0&
00
0%
