FPGA_FIR_Filter/sim/transcript
# Compile of FIR_Filter.v was successful.
# Compile of FIR_Filter_TB.v was successful.
# 2 compiles, 0 failed with no errors.
vsim -gui work.FIR_Filter_TB
# vsim -gui work.FIR_Filter_TB 
# Start time: 21:18:12 on Jun 26,2026
# Loading work.FIR_Filter_TB
# Loading work.FIR_Filter
add wave -position end  sim:/FIR_Filter_TB/iClkFast
add wave -position end  sim:/FIR_Filter_TB/iRstN
add wave -position end  sim:/FIR_Filter_TB/iDataIn
add wave -position end  sim:/FIR_Filter_TB/iValidIn
add wave -position end  sim:/FIR_Filter_TB/oDataOut
add wave -position end  sim:/FIR_Filter_TB/oValidOut
add wave -position end  sim:/FIR_Filter_TB/Idx
run -all
# ----------------------------------------
# Starting Weighted FIR Filter Data Stream Test
# ----------------------------------------
# Time: 50000 | Valid In: 1 | Data In:  10 || Valid Out: 1 | Data Out:   10
# Time: 60000 | Valid In: 1 | Data In:  20 || Valid Out: 1 | Data Out:   40
# Time: 70000 | Valid In: 1 | Data In:  30 || Valid Out: 1 | Data Out:  100
# Time: 80000 | Valid In: 1 | Data In:  40 || Valid Out: 1 | Data Out:  200
# Time: 90000 | Valid In: 1 | Data In:  50 || Valid Out: 1 | Data Out:  300
# ----------------------------------------
# Test 2: Pause Stream (iValidIn = 0)
# Filter should hold state and oValidOut should drop to 0
# ----------------------------------------
# Time: 100000 | Valid In: 0 | Data In:  99 || Valid Out: 0 | Data Out:  300
# Time: 110000 | Valid In: 0 | Data In:  99 || Valid Out: 0 | Data Out:  300
# Time: 120000 | Valid In: 0 | Data In:  99 || Valid Out: 0 | Data Out:  300
# ----------------------------------------
# Test 3: Resume Stream with Constant Data (10)
# Output should eventually stabilize at 10*1 + 10*2 + 10*3 + 10*4 = 100
# ----------------------------------------
# Time: 130000 | Valid In: 1 | Data In:  10 || Valid Out: 1 | Data Out:  350
# Time: 140000 | Valid In: 1 | Data In:  10 || Valid Out: 1 | Data Out:  340
# Time: 150000 | Valid In: 1 | Data In:  10 || Valid Out: 1 | Data Out:  260
# Time: 160000 | Valid In: 1 | Data In:  10 || Valid Out: 1 | Data Out:  100
# Time: 170000 | Valid In: 1 | Data In:  10 || Valid Out: 1 | Data Out:  100
# ----------------------------------------
# Test 4: Flushing the filter (Zeros)
# ----------------------------------------
# Time: 180000 | Valid In: 1 | Data In:   0 || Valid Out: 1 | Data Out:   90
# Time: 190000 | Valid In: 1 | Data In:   0 || Valid Out: 1 | Data Out:   70
# Time: 200000 | Valid In: 1 | Data In:   0 || Valid Out: 1 | Data Out:   40
# Time: 210000 | Valid In: 1 | Data In:   0 || Valid Out: 1 | Data Out:    0
# ----------------------------------------
# Testbench Completed Successfully!
# ----------------------------------------
# ** Note: $finish    : C:/Git/Projects/VLSI_steaming_system/FPGA_FIR_Filter/rtl/FIR_Filter_TB.v(122)
#    Time: 260 ns  Iteration: 0  Instance: /FIR_Filter_TB
# 1
# Break in Module FIR_Filter_TB at C:/Git/Projects/VLSI_steaming_system/FPGA_FIR_Filter/rtl/FIR_Filter_TB.v line 122
add wave -position end  sim:/FIR_Filter_TB/uut/rX0
add wave -position end  sim:/FIR_Filter_TB/uut/rX1
add wave -position end  sim:/FIR_Filter_TB/uut/rX2
add wave -position end  sim:/FIR_Filter_TB/uut/rX3
add wave -position end  sim:/FIR_Filter_TB/uut/wX0
add wave -position end  sim:/FIR_Filter_TB/uut/wX1
add wave -position end  sim:/FIR_Filter_TB/uut/wX2
add wave -position end  sim:/FIR_Filter_TB/uut/wX3
restart
# Closing VCD file "fir_waves.vcd"
# ** Note: (vsim-12125) Error and warning message counts have been reset to '0' because of 'restart'.
run -all
# GetModuleFileName: The specified module could not be found.
# 
# 
# ----------------------------------------
# Starting Weighted FIR Filter Data Stream Test
# ----------------------------------------
# Time: 50000 | Valid In: 1 | Data In:  10 || Valid Out: 1 | Data Out:   10
# Time: 60000 | Valid In: 1 | Data In:  20 || Valid Out: 1 | Data Out:   40
# Time: 70000 | Valid In: 1 | Data In:  30 || Valid Out: 1 | Data Out:  100
# Time: 80000 | Valid In: 1 | Data In:  40 || Valid Out: 1 | Data Out:  200
# Time: 90000 | Valid In: 1 | Data In:  50 || Valid Out: 1 | Data Out:  300
# ----------------------------------------
# Test 2: Pause Stream (iValidIn = 0)
# Filter should hold state and oValidOut should drop to 0
# ----------------------------------------
# Time: 100000 | Valid In: 0 | Data In:  99 || Valid Out: 0 | Data Out:  300
# Time: 110000 | Valid In: 0 | Data In:  99 || Valid Out: 0 | Data Out:  300
# Time: 120000 | Valid In: 0 | Data In:  99 || Valid Out: 0 | Data Out:  300
# ----------------------------------------
# Test 3: Resume Stream with Constant Data (10)
# Output should eventually stabilize at 10*1 + 10*2 + 10*3 + 10*4 = 100
# ----------------------------------------
# Time: 130000 | Valid In: 1 | Data In:  10 || Valid Out: 1 | Data Out:  350
# Time: 140000 | Valid In: 1 | Data In:  10 || Valid Out: 1 | Data Out:  340
# Time: 150000 | Valid In: 1 | Data In:  10 || Valid Out: 1 | Data Out:  260
# Time: 160000 | Valid In: 1 | Data In:  10 || Valid Out: 1 | Data Out:  100
# Time: 170000 | Valid In: 1 | Data In:  10 || Valid Out: 1 | Data Out:  100
# ----------------------------------------
# Test 4: Flushing the filter (Zeros)
# ----------------------------------------
# Time: 180000 | Valid In: 1 | Data In:   0 || Valid Out: 1 | Data Out:   90
# Time: 190000 | Valid In: 1 | Data In:   0 || Valid Out: 1 | Data Out:   70
# Time: 200000 | Valid In: 1 | Data In:   0 || Valid Out: 1 | Data Out:   40
# Time: 210000 | Valid In: 1 | Data In:   0 || Valid Out: 1 | Data Out:    0
# ----------------------------------------
# Testbench Completed Successfully!
# ----------------------------------------
# ** Note: $finish    : C:/Git/Projects/VLSI_steaming_system/FPGA_FIR_Filter/rtl/FIR_Filter_TB.v(122)
#    Time: 260 ns  Iteration: 0  Instance: /FIR_Filter_TB
# 1
# Break in Module FIR_Filter_TB at C:/Git/Projects/VLSI_steaming_system/FPGA_FIR_Filter/rtl/FIR_Filter_TB.v line 122
# End time: 21:24:27 on Jun 26,2026, Elapsed time: 0:06:15
# Errors: 0, Warnings: 1
